…
Multiple formats matched: "%Om %d"(1), "Mar %Om"(1), "%b %d"(1), "Mar %H"(1), "Mar %m"(1)
Using: "%b %d"
Multiple formats matched: "%Om %d, %Y"(1), "Mar %Om, %Y"(1), "%b %d, %Y"(1), "Mar %m, %Y"(1)
Using: "%b %d, %Y"
`summarise()` has grouped output by 'variant'. You can override using the
`.groups` argument.
`summarise()` has grouped output by 'Source'. You can override using the
`.groups` argument.
Joining with `by = join_by(Source, coll_date, N)`
Warning message:
Using `size` aesthetic for lines was deprecated in ggplot2 3.4.0.
ℹ Please use `linewidth` instead. 
`summarise()` has grouped output by 'ym', 'year'. You can override using the
`.groups` argument.
# A tibble: 26 × 4
# Groups:   ym, year [26]
   ym          year month    nd
   <date>     <dbl> <dbl> <int>
 1 2021-01-01  2021     1   200
 2 2021-02-01  2021     2   491
 3 2021-03-01  2021     3  1199
 4 2021-04-01  2021     4  1483
 5 2021-05-01  2021     5   816
 6 2021-06-01  2021     6   151
 7 2021-07-01  2021     7   580
 8 2021-08-01  2021     8  1276
 9 2021-09-01  2021     9  1563
10 2021-10-01  2021    10  1381
# ℹ 16 more rows
# A tibble: 26 × 2
   ym            nm
   <date>     <int>
 1 2021-01-01   200
 2 2021-02-01   491
 3 2021-03-01  1199
 4 2021-04-01  1483
 5 2021-05-01   816
 6 2021-06-01   151
 7 2021-07-01   580
 8 2021-08-01  1276
 9 2021-09-01  1563
10 2021-10-01  1381
# ℹ 16 more rows
Adding missing grouping variables: `year`
# A tibble: 26 × 3
# Groups:   ym, year [26]
    year ym             m
   <dbl> <date>     <int>
 1  2021 2021-01-01     1
 2  2021 2021-02-01     2
 3  2021 2021-03-01     3
 4  2021 2021-04-01     4
 5  2021 2021-05-01     5
 6  2021 2021-06-01     6
 7  2021 2021-07-01     7
 8  2021 2021-08-01     8
 9  2021 2021-09-01     9
10  2021 2021-10-01    10
# ℹ 16 more rows
…
Using: "%b %d"
Multiple formats matched: "%Om %d, %Y"(1), "Mar %Om, %Y"(1), "%b %d, %Y"(1), "Mar %m, %Y"(1)
Using: "%b %d, %Y"
Multiple formats matched: "%Om %d"(1), "Mar %Om"(1), "%b %d"(1), "Mar %H"(1), "Mar %m"(1)
Using: "%b %d"
Multiple formats matched: "%Om %d, %Y"(1), "Mar %Om, %Y"(1), "%b %d, %Y"(1), "Mar %m, %Y"(1)
Using: "%b %d, %Y"
`summarise()` has grouped output by 'variant'. You can override using the
`.groups` argument.
`summarise()` has grouped output by 'Source'. You can override using the
`.groups` argument.
Joining with `by = join_by(Source, coll_date, N)`
`summarise()` has grouped output by 'ym', 'year'. You can override using the
`.groups` argument.
# A tibble: 25 × 4
# Groups:   ym, year [25]
   ym          year month    nd
   <date>     <dbl> <dbl> <int>
 1 2021-02-01  2021     2    98
 2 2021-03-01  2021     3   169
 3 2021-04-01  2021     4   154
 4 2021-05-01  2021     5   122
 5 2021-06-01  2021     6    39
 6 2021-07-01  2021     7   201
 7 2021-08-01  2021     8   196
 8 2021-09-01  2021     9    77
 9 2021-10-01  2021    10    75
10 2021-11-01  2021    11   127
# ℹ 15 more rows
# A tibble: 25 × 2
   ym            nm
   <date>     <int>
 1 2021-02-01    98
 2 2021-03-01   169
 3 2021-04-01   154
 4 2021-05-01   122
 5 2021-06-01    39
 6 2021-07-01   201
 7 2021-08-01   196
 8 2021-09-01    77
 9 2021-10-01    75
10 2021-11-01   127
# ℹ 15 more rows
Adding missing grouping variables: `year`
# A tibble: 25 × 3
# Groups:   ym, year [25]
    year ym             m
   <dbl> <date>     <int>
 1  2021 2021-02-01     1
 2  2021 2021-03-01     2
 3  2021 2021-04-01     3
 4  2021 2021-05-01     4
 5  2021 2021-06-01     5
 6  2021 2021-07-01     6
 7  2021 2021-08-01     7
 8  2021 2021-09-01     8
 9  2021 2021-10-01     9
10  2021 2021-11-01    10
# ℹ 15 more rows
…
Multiple formats matched: "%Om %d, %Y"(1), "Mar %Om, %Y"(1), "%b %d, %Y"(1), "Mar %m, %Y"(1)
Using: "%b %d, %Y"
Multiple formats matched: "%Om %d"(1), "Mar %Om"(1), "%b %d"(1), "Mar %H"(1), "Mar %m"(1)
Using: "%b %d"
Multiple formats matched: "%Om %d, %Y"(1), "Mar %Om, %Y"(1), "%b %d, %Y"(1), "Mar %m, %Y"(1)
Using: "%b %d, %Y"
Multiple formats matched: "%Om %d"(1), "Mar %Om"(1), "%b %d"(1), "Mar %H"(1), "Mar %m"(1)
Using: "%b %d"
Multiple formats matched: "%Om %d, %Y"(1), "Mar %Om, %Y"(1), "%b %d, %Y"(1), "Mar %m, %Y"(1)
Using: "%b %d, %Y"
`summarise()` has grouped output by 'mutation'. You can override using the
`.groups` argument.
`summarise()` has grouped output by 'ym', 'year'. You can override using the
`.groups` argument.
# A tibble: 37 × 6
# Groups:   ym, year [37]
   ym       year month    nd     m seqs 
   <chr>   <dbl> <dbl> <int> <int> <chr>
 1 2020-02  2020     2     1     1 Total
 2 2020-03  2020     3     8     2 Total
 3 2020-04  2020     4    85     3 Total
 4 2020-05  2020     5    22     4 Total
 5 2020-06  2020     6     4     5 Total
 6 2020-07  2020     7     7     6 Total
 7 2020-08  2020     8     3     7 Total
 8 2020-09  2020     9     3     8 Total
 9 2020-10  2020    10    22     9 Total
10 2020-11  2020    11    70    10 Total
# ℹ 27 more rows
…
